{
	"workExperience": [
		{
			"title": "Web Designer",
			"org": {
				"fn": "CaDan Computers",
				"url": "https://cadan.com"
			},
			"locality": "St. Paul",
			"region": "Minnesota",
			"dtstart": "2006-04-18",
			"dtend": "2007-09-28",
			"description": [
				"Developed and maintained sites internally and for clients, including integrating and configuring third-party e-commerce interfaces. Languages used: (X)HTML, CSS, JavaScript."
			]
		},
		{
			"title": "Web Developer",
			"org": {
				"fn": "Micros-Retail",
				"url": "https://www.oracle.com/industries/retail/index.html"
			},
			"locality": "Omaha",
			"region": "Nebraska",
			"dtstart": "2007-10-3",
			"dtend": "2012-09-14",
			"description": [
				"Developed the front-end interface for multiple e-commerce sites. Often worked from client-supplied designs, occasionally required to implement own design decisions. Languages used: (X)HTML, CSS, JavaScript, XML, SQL, some JSP/JSTL.",
				"MICROS-Retail's parent company, MICROS Systems, was aquired by Oracle in June of 2014."
			]
		},
		{
			"title": "Rich Internet Application Developer",
			"org": {
				"fn": "Hayneedle",
				"url": "https://www.hayneedleinc.com"
			},
			"locality": "Omaha",
			"region": "Nebraska",
			"dtstart": "2012-09-17",
			"dtend": "2014-10-03",
			"description": [
				"Developed the front-end interface and interaction for various features on the company’s e-commerce sites. Was involved in some server-side development, especially with regards to AJAX request handling. Languages used: HTML, CSS, JavaScript, ColdFusion."
			]
		},
		{
			"title": "UX Developer",
			"org": {
				"fn": "Mutual of Omaha",
				"url": "https://www.mutualofomaha.com"
			},
			"locality": "Omaha",
			"region": "Nebraska",
			"dtstart": "2014-10-06",
			"description": [
				"Developed and supported Mutual of Omaha's main web site and many ancillary properties. Languages used: HTML, CSS, JavaScript, PHP."
			]
		}
	]
}
